digraph "DAL_POC_Processamento_Cartao.Entidades.EntidadeProcessamentoCredito"
{
 // LATEX_PDF_SIZE
  edge [fontname="Helvetica",fontsize="10",labelfontname="Helvetica",labelfontsize="10"];
  node [fontname="Helvetica",fontsize="10",shape=record];
  Node1 [label="DAL_POC_Processamento\l_Cartao.Entidades.EntidadeProcessamento\lCredito",height=0.2,width=0.4,color="black", fillcolor="grey75", style="filled", fontcolor="black",tooltip=" "];
  Node2 -> Node1 [dir="back",color="midnightblue",fontsize="10",style="solid"];
  Node2 [label="EntidadeProcessamentoBase",height=0.2,width=0.4,color="black", fillcolor="white", style="filled",URL="$class_d_a_l___p_o_c___processamento___cartao_1_1_entidades_1_1_entidade_processamento_base.html",tooltip=" "];
  Node3 -> Node2 [dir="back",color="midnightblue",fontsize="10",style="solid"];
  Node3 [label="EntidadeErro",height=0.2,width=0.4,color="black", fillcolor="white", style="filled",URL="$class_d_a_l___p_o_c___processamento___cartao_1_1_util_1_1_entidade_erro.html",tooltip=" "];
}
