digraph "DAL_POC_Processamento_Cartao.Util.EntidadeErro"
{
 // LATEX_PDF_SIZE
  edge [fontname="Helvetica",fontsize="10",labelfontname="Helvetica",labelfontsize="10"];
  node [fontname="Helvetica",fontsize="10",shape=record];
  rankdir="LR";
  Node1 [label="DAL_POC_Processamento\l_Cartao.Util.EntidadeErro",height=0.2,width=0.4,color="black", fillcolor="grey75", style="filled", fontcolor="black",tooltip=" "];
  Node1 -> Node2 [dir="back",color="midnightblue",fontsize="10",style="solid"];
  Node2 [label="DAL_POC_Processamento\l_Cartao.Entidades.EntidadeProcessamentoBase",height=0.2,width=0.4,color="black", fillcolor="white", style="filled",URL="$class_d_a_l___p_o_c___processamento___cartao_1_1_entidades_1_1_entidade_processamento_base.html",tooltip=" "];
  Node2 -> Node3 [dir="back",color="midnightblue",fontsize="10",style="solid"];
  Node3 [label="DAL_POC_Processamento\l_Cartao.Entidades.EntidadeProcessamento\lCredito",height=0.2,width=0.4,color="black", fillcolor="white", style="filled",URL="$class_d_a_l___p_o_c___processamento___cartao_1_1_entidades_1_1_entidade_processamento_credito.html",tooltip=" "];
  Node2 -> Node4 [dir="back",color="midnightblue",fontsize="10",style="solid"];
  Node4 [label="DAL_POC_Processamento\l_Cartao.Entidades.EntidadeProcessamento\lDebito",height=0.2,width=0.4,color="black", fillcolor="white", style="filled",URL="$class_d_a_l___p_o_c___processamento___cartao_1_1_entidades_1_1_entidade_processamento_debito.html",tooltip=" "];
  Node2 -> Node5 [dir="back",color="midnightblue",fontsize="10",style="solid"];
  Node5 [label="DAL_POC_Processamento\l_Cartao.Entidades.EntidadeProcessamento\lVoucher",height=0.2,width=0.4,color="black", fillcolor="white", style="filled",URL="$class_d_a_l___p_o_c___processamento___cartao_1_1_entidades_1_1_entidade_processamento_voucher.html",tooltip=" "];
}
