digraph "BLL_POC_Processamento_Cartao.Estruturas.ProcessamentoCredito"
{
 // LATEX_PDF_SIZE
  edge [fontname="Helvetica",fontsize="10",labelfontname="Helvetica",labelfontsize="10"];
  node [fontname="Helvetica",fontsize="10",shape=record];
  Node1 [label="BLL_POC_Processamento\l_Cartao.Estruturas.Processamento\lCredito",height=0.2,width=0.4,color="black", fillcolor="grey75", style="filled", fontcolor="black",tooltip="Estrutura de processamento de cartão de crédito"];
  Node2 -> Node1 [dir="back",color="midnightblue",fontsize="10",style="solid"];
  Node2 [label="IProcessamento",height=0.2,width=0.4,color="black", fillcolor="white", style="filled",URL="$interface_b_l_l___p_o_c___processamento___cartao_1_1_interfaces_1_1_i_processamento.html",tooltip="Interface das estruturas de processamento"];
}
